Unidad III - Pruebas no paramétricas, Pruebas de correlación, Regresión lineal, Clúster, Análisis de Componentes principales (PCA)
…
$MFC

    Shapiro-Wilk normality test

data:  X[[i]]
W = 0.25615, p-value < 2.2e-16

Nota

No hay normalidad en los datos, porque p<0.05

no_parametricos

# A tibble: 219 × 2
   TRAT  HSUELO
   <chr>  <dbl>
 1 M      0.206
 2 M      0.205
 3 M      0.204
 4 M      0.204
 5 M      0.206
 6 M      0.206
 7 M      0.206
 8 M      0.208
 9 M      0.208
10 M      0.21 
# ℹ 209 more rows
…
ℹ Use `spec()` to retrieve the full column specification for this data.
ℹ Specify the column types or set `show_col_types = FALSE` to quiet this message.

  regre|>
  dplyr::glimpse()

Rows: 31
Columns: 2
$ Distancia <dbl> 8.3, 8.6, 8.8, 10.5, 10.7, 10.8, 11.0, 11.0, 11.1, 11.2, 11.…
$ Edad      <dbl> 70, 65, 63, 72, 81, 83, 66, 75, 80, 75, 79, 76, 76, 69, 75, …

regre

# A tibble: 31 × 2
   Distancia  Edad
       <dbl> <dbl>
 1       8.3    70
 2       8.6    65
 3       8.8    63
 4      10.5    72
 5      10.7    81
 6      10.8    83
 7      11      66
 8      11      75
 9      11.1    80
10      11.2    75
# ℹ 21 more rows
…
