Unidad II - Normalidad, Varianza, Chi, T-student y ANOVA simple
…
ℹ Use `spec()` to retrieve the full column specification for this data.
ℹ Specify the column types or set `show_col_types = FALSE` to quiet this message.

anova_corr |>
  dplyr::glimpse()

Rows: 52
Columns: 2
$ Corre    <chr> "Altavista ", "Altavista ", "Altavista ", "Altavista ", "Alta…
$ Plan_med <dbl> 66, 30, 45, 21, 16, 14, 6, 22, 40, 50, 32, 58, 46, 36, 41, 17…

anova_corr

# A tibble: 52 × 2
   Corre        Plan_med
   <chr>           <dbl>
 1 "Altavista "       66
 2 "Altavista "       30
 3 "Altavista "       45
 4 "Altavista "       21
 5 "Altavista "       16
 6 "Altavista "       14
 7 "Altavista "        6
 8 "Altavista "       22
 9 "Palmitas"         40
10 "Palmitas"         50
# ℹ 42 more rows
…
